#-----------------------------------------------------------
# Webtalk v2019.1 (64-bit)
# SW Build 2552052 on Fri May 24 14:49:42 MDT 2019
# IP Build 2548770 on Fri May 24 18:01:18 MDT 2019
# Start of session at: Fri Jun 19 17:55:35 2020
# Process ID: 844
# Current directory: E:/2018/lab2/shiyan2/shiyan2.sim/sim_1/behav/xsim
# Command line: wbtcv.exe -mode batch -source E:/2018/lab2/shiyan2/shiyan2.sim/sim_1/behav/xsim/xsim.dir/top_sim_behav/webtalk/xsim_webtalk.tcl -notrace
# Log file: E:/2018/lab2/shiyan2/shiyan2.sim/sim_1/behav/xsim/webtalk.log
# Journal file: E:/2018/lab2/shiyan2/shiyan2.sim/sim_1/behav/xsim\webtalk.jou
#-----------------------------------------------------------
source E:/2018/lab2/shiyan2/shiyan2.sim/sim_1/behav/xsim/xsim.dir/top_sim_behav/webtalk/xsim_webtalk.tcl -notrace
INFO: [Common 17-206] Exiting Webtalk at Fri Jun 19 17:55:36 2020...
